<svg version="1.1" viewBox="0 0 32 32" xml:space="preserve" xmlns="http://www.w3.org/2000/svg"><style type="text/css">
	.st0{stroke:#4F5266;stroke-linecap:round;stroke-linejoin:round;stroke-miterlimit:10;}
</style><path d="m16 0a16 16 0 0 0-0.060547 0.0019531c-0.49944 0.02673-0.98895 0.37795-1.4844 1.1738-0.47094 0.75655-0.89195 1.8787-1.2422 3.2227 0.92478-0.094211 1.8593-0.14844 2.7949-0.14844 0.93037 0 1.8598 0.053334 2.7793 0.14648-0.35015-1.3431-0.77146-2.4645-1.2422-3.2207-0.4947-0.7947-0.98374-1.1442-1.4824-1.1719a16 16 0 0 0-0.0625-0.0039062zm-2.0879 0.30273c-2.2642 0.6353-4.0409 2.2773-5.3516 4.5977-0.088204 0.15615-0.16432 0.32648-0.24805 0.48828 1.2206-0.38797 2.5088-0.66447 3.8262-0.85352 0.3824-1.5791 0.85945-2.9079 1.4688-3.8867 0.088029-0.14141 0.2086-0.21804 0.30469-0.3457zm4.1758 0c0.09609 0.12766 0.21666 0.20429 0.30469 0.3457 0.60874 0.97791 1.0846 2.3056 1.4668 3.8828 1.3175 0.18818 2.6051 0.46442 3.8262 0.85156-0.08284-0.15993-0.15887-0.32801-0.24609-0.48242-1.3107-2.3204-3.0873-3.9624-5.3516-4.5977zm-7.5566 0.67578a16 16 0 0 0-9.2695 8.7969c0.8588-1.0263 1.9241-1.9087 3.1328-2.6406 0.80047-0.48469 1.6639-0.90821 2.5742-1.2695 0.22293-0.50199 0.45909-0.99193 0.7207-1.4551 0.76713-1.3581 1.724-2.5221 2.8418-3.4316zm10.951 0.011719c1.1115 0.90793 2.0643 2.0677 2.8281 3.4199 0.26064 0.46143 0.4965 0.94922 0.71875 1.4492 0.91582 0.36267 1.7849 0.78797 2.5898 1.2754 1.1804 0.71476 2.2222 1.5747 3.0703 2.5703a16 16 0 0 0-9.207-8.7148zm-5.4746 4.2598c-1.0186 0-2.0375 0.059175-3.0391 0.17578-0.31827 1.4751-0.55538 3.1624-0.7168 4.959 1.2366-0.081294 2.4907-0.13477 3.7559-0.13477 1.2598 0 2.5089 0.054163 3.7402 0.13477-0.16148-1.7973-0.39833-3.4854-0.7168-4.9609-0.99633-0.11539-2.0102-0.17383-3.0234-0.17383zm4.0801 0.32812c0.30114 1.4827 0.51893 3.1438 0.66992 4.8887 1.6927 0.14382 3.3237 0.35248 4.8047 0.65625-0.28662-1.587-0.71773-3.0958-1.2852-4.4648-1.3109-0.48527-2.723-0.84677-4.1895-1.0801zm-8.1758 0.0019531c-1.4675 0.2343-2.88 0.59737-4.1914 1.084-0.56648 1.3681-0.99698 2.8754-1.2832 4.4609 1.4803-0.30426 3.1121-0.51195 4.8047-0.65625 0.15092-1.7448 0.36887-3.406 0.66992-4.8887zm13.65 1.6094c0.47069 1.3134 0.82645 2.7167 1.0645 4.1719 0.29378 0.071761 0.59008 0.14185 0.86914 0.2207 1.5833 0.44738 2.9209 1.0051 3.9004 1.7168 0.12104 0.087951 0.18075 0.20663 0.29102 0.30078-0.66541-2.3753-2.3121-4.2326-4.5859-5.6094-0.48378-0.29293-1.0044-0.5542-1.5391-0.80078zm-19.127 0.0058594c-0.5293 0.2447-1.0442 0.50474-1.5234 0.79492-2.2738 1.3768-3.9205 3.2341-4.5859 5.6094 0.11026-0.094153 0.16997-0.21283 0.29102-0.30078 0.9795-0.71171 2.3171-1.2694 3.9004-1.7168 0.2742-0.07748 0.56507-0.14812 0.85352-0.21875 0.23766-1.4538 0.59456-2.8555 1.0645-4.168zm9.5723 4.0547c-1.2912 0-2.5697 0.06001-3.8281 0.14648-0.068105 0.9442-0.10458 1.9119-0.13281 2.8828-0.47375 0.5689-0.84255 1.2263-1.041 1.9609-2.44e-4 -0.075276-0.005859-0.14932-0.005859-0.22461 0-1.5351 0.069268-3.0529 0.17188-4.5371-1.7463 0.15464-3.4178 0.38015-4.9004 0.70312-0.17411 1.2564-0.27148 2.5434-0.27148 3.834 0 0.044363 0.0025945 0.088563 0.0039062 0.13281l-0.67578-0.11328c-0.10925-0.01832-0.21946-0.022757-0.32812-0.019531 0-1.2036 0.080866-2.4038 0.22656-3.584-0.14433 0.037734-0.29764 0.071809-0.4375 0.11133-1.5133 0.42762-2.7571 0.96366-3.584 1.5645-0.79281 0.57606-1.1706 1.1651-1.2012 1.8105a16 16 0 0 0-0.0039062 0.082031 16 16 0 0 0 3.1602 9.4863l-1.5391 0.57812c-0.97 0.363-1.6211 1.3038-1.6211 2.3398v3.0957c0 0.276 0.224 0.5 0.5 0.5s0.5-0.224 0.5-0.5v-3.0957c0-0.622 0.39161-1.1853 0.97461-1.4043l0.99609-0.37305c0.75533 0.87665 1.8598 1.3926 3.0293 1.3926 1.1695 0 2.2728-0.51625 3.0293-1.3926l0.61328 0.23047c-0.40117 0.49892-0.64258 1.1133-0.64258 1.7773v2.8652c0 0.276 0.224 0.5 0.5 0.5s0.5-0.224 0.5-0.5v-2.8652c0-0.646 0.327-1.2371 0.875-1.5781l2.2031-1.3711c0.75648 0.79142 1.8178 1.2539 2.9219 1.2539s2.1654-0.462 2.9219-1.2539l2.2012 1.373c0.548 0.342 0.87695 0.93017 0.87695 1.5762v2.8652c0 0.276 0.224 0.5 0.5 0.5s0.5-0.224 0.5-0.5v-2.8652c0-0.66488-0.24261-1.2786-0.64453-1.7773l0.61523-0.23047c0.75533 0.87665 1.8598 1.3926 3.0293 1.3926 1.1695 0 2.2728-0.51625 3.0293-1.3926l0.99609 0.37305c0.583 0.218 0.97461 0.7823 0.97461 1.4043v3.0957c0 0.276 0.224 0.5 0.5 0.5s0.5-0.224 0.5-0.5v-3.0957c0-1.036-0.65109-1.9768-1.6211-2.3398l-1.5391-0.57812a16 16 0 0 0 3.1602-9.4863 16 16 0 0 0-0.007812-0.19727c-0.069397-0.60005-0.43867-1.154-1.1836-1.6953-0.82684-0.60079-2.0707-1.1368-3.584-1.5645-0.14426-0.040763-0.30217-0.076371-0.45117-0.11524 0.14601 1.1815 0.22656 2.383 0.22656 3.5879 0 0.099042-0.004509 0.19794-0.007812 0.29688l-0.99609-0.16602c0.001306-0.043598 0.003906-0.087148 0.003906-0.13086 0-1.2919-0.097025-2.5803-0.27148-3.8379-1.4828-0.3223-3.1548-0.54511-4.9004-0.69922 0.10221 1.4785 0.17134 2.9905 0.17188 4.5195-0.21928-0.67855-0.59056-1.2827-1.0488-1.8086-0.028659-0.94105-0.064791-1.8794-0.13086-2.7949-1.2533-0.085774-2.5265-0.14453-3.8125-0.14453zm0.027344 2.1309c2.324 0 4.2168 1.8928 4.2168 4.2168 0 0.0035 0.001853 0.006266 0.001953 0.009766v0.70703c-0.22457-0.19145-0.47726-0.34158-0.75195-0.44531-0.05526-0.03209-0.1156-0.051647-0.18164-0.060547-0.21378-0.062-0.43309-0.10742-0.66406-0.10742l-0.22656-0.00586c-1.3169 2e-6 -2.5742-0.44062-3.6465-1.2637-0.13107-0.16542-0.35312-0.23942-0.5625-0.16211-1.1311 0.42356-1.901 1.4874-1.9766 2.6836-3e-3 0.02222-0.013672 0.041413-0.013672 0.064453v0.09961c-7.3e-5 0.0086-0.001953 0.01681-0.001953 0.02539 0 0.0035 0.001853 0.006266 0.001953 0.009766v0.62109c0 1.2221 0.59349 2.2984 1.498 2.9863v1.3398l-1.0625 0.66211h-0.55274c-0.199 0-0.38662-0.087281-0.51562-0.23828-0.129-0.153-0.1863-0.35183-0.1543-0.54883 0.25-1.558 0.37695-3.1467 0.37695-4.7207v-1.6562c0-2.324 1.8908-4.2168 4.2148-4.2168zm-10.982 3.6328c0.038 0 0.073328 0.003812 0.11133 0.007812l2.8516 0.47461c0.188 0.031 0.35289 0.13402 0.46289 0.29102 0.11 0.156 0.15195 0.34619 0.12695 0.49219l-0.30273 1.1055-0.083984-0.125c-0.093-0.137-0.24906-0.2168-0.41406-0.2168h-3.625c-0.167 0-0.32302 0.08266-0.41602 0.22266l-0.12891 0.19141-0.23438-0.65039c-0.03-0.141 0.0047002-0.28739 0.095703-0.40039 0.092-0.113 0.22609-0.17773 0.37109-0.17773 0.276 0 0.5-0.25525 0.5-0.53125 0-0.201 0.089188-0.39148 0.24219-0.52148 0.125-0.105 0.28236-0.16211 0.44336-0.16211zm20 0c0.038 0 0.07333 0.003812 0.11133 0.007812l2.8516 0.47461c0.188 0.031 0.35289 0.13402 0.46289 0.29102 0.11 0.156 0.15195 0.34619 0.12695 0.49219l-0.30274 1.1055-0.083984-0.125c-0.093-0.137-0.24906-0.2168-0.41406-0.2168h-3.625c-0.167 0-0.32302 0.08266-0.41602 0.22266l-0.12891 0.19141-0.23438-0.65039c-0.03-0.141 0.004703-0.28739 0.095703-0.40039 0.092-0.113 0.22609-0.17773 0.37109-0.17773 0.276 0 0.5-0.25525 0.5-0.53125-2e-6 -0.201 0.08919-0.39148 0.24219-0.52148 0.125-0.105 0.28236-0.16211 0.44336-0.16211zm-10.709 0.32227c1.212 0.87891 2.6121 1.3594 4.0684 1.3594l0.22852 0.00586c0.03952 0 0.07642 0.010532 0.11523 0.013672v1.0586c0 1.524-1.2407 2.7637-2.7637 2.7637-1.523 0-2.7617-1.2407-2.7617-2.7637v-0.64063c0.0045-0.76478 0.44922-1.4446 1.1133-1.7969zm5.4121 1.873c0.30455 0.32784 0.49609 0.78627 0.49609 1.2949 0 0.08257 0.025057 0.15595 0.060547 0.22461 0.05389 1.0883 0.14421 2.175 0.31641 3.2461 0.031 0.197-0.0243 0.39783-0.1543 0.54883-0.13 0.151-0.31858 0.23828-0.51758 0.23828h-0.62695l-1.0625-0.66211v-1.3496c0.89831-0.68841 1.4883-1.7594 1.4883-2.9766v-0.56445zm-15.311 0.83398h3.0957l0.45703 0.66797v1.0918c0 0.64808-0.31379 1.2183-0.79297 1.584-0.00243 0.0018-0.0054025 0.002106-0.0078125 0.003906-0.088625 0.06713-0.18136 0.12538-0.27734 0.17578-0.094151 0.04944-0.19179 0.09167-0.29102 0.125-0.0019299 6.48e-4 -0.0039293 0.001253-0.0058593 0.001953-0.00313 1e-3 -0.0066257 8.85e-4 -0.0097657 0.001953-0.39079 0.12773-0.81105 0.1295-1.2031 0.007813-0.018904-0.0059-0.03798-0.011158-0.056641-0.017578-0.090822-0.03122-0.18105-0.06843-0.26758-0.11328-0.00593-0.0031-0.011672-0.006566-0.017578-0.009766-0.09244-0.04911-0.18203-0.10512-0.26758-0.16992-0.0011999-9.11e-4 -0.0026962-0.001053-0.0039062-0.001953-0.48167-0.3655-0.79883-0.93783-0.79883-1.5879v-1.0898l0.44727-0.66992zm20 0h3.0957l0.45703 0.66797v1.0918c0 0.65006-0.3152 1.2224-0.79688 1.5879-0.0012 8.99e-4 -0.002706 9.53e-4 -0.003906 0.001953-0.08863 0.067-0.18136 0.12559-0.27734 0.17578-0.0026 0.0014-0.005213 0.002607-0.007813 0.003907-0.09171 0.04744-0.18672 0.08697-0.2832 0.11914-0.0051 0.0017-0.010525 0.002206-0.015625 0.003906-0.60502 0.19626-1.2835 0.09522-1.8125-0.30469-0.0024-0.0018-0.005412-0.002106-0.007812-0.003906-0.47918-0.36568-0.79492-0.9359-0.79492-1.584v-1.0898l0.44726-0.66992zm-7.1777 3.2559v1.0801h0.009766c3.66e-4 0.16672 0.07495 0.32923 0.22656 0.42383l0.5332 0.33203c-0.55523 0.50434-1.2786 0.80469-2.0371 0.80469-0.75898 0-1.4843-0.29978-2.0391-0.80469l0.5332-0.33203c0.15166-0.09422 0.22576-0.2578 0.22656-0.42383h0.007813v-1.0762c0.39705 0.14284 0.81804 0.23438 1.2637 0.23438 0.4493 0 0.87558-0.09319 1.2754-0.23828zm-12.268 1.3281c0.059555 0.02147 0.12269 0.031368 0.18359 0.048828 0.090688 0.02581 0.1795 0.053063 0.27344 0.070313 0.10776 0.01986 0.21674 0.027266 0.32617 0.035156 0.072263 0.0052 0.14127 0.021484 0.21484 0.021484 0.068719 0 0.13359-0.016914 0.20117-0.021484 0.11598-0.0078 0.23151-0.013936 0.3457-0.035156 0.089274-0.01652 0.17343-0.0441 0.25977-0.06836 0.06485-0.018363 0.13195-0.027875 0.19531-0.050781v0.89258c0 0.208 0.12827 0.3928 0.32227 0.4668l0.68359 0.25586c-0.54551 0.49117-1.255 0.77734-2.0039 0.77734-0.75033 0-1.4622-0.2849-2.0078-0.77734l0.68164-0.25586c0.195-0.073 0.32422-0.2588 0.32422-0.4668v-0.89258zm20 0c0.05955 0.02156 0.1227 0.031288 0.18359 0.048828 0.09069 0.02581 0.1795 0.053063 0.27344 0.070313 0.10776 0.01997 0.21674 0.027176 0.32617 0.035156 0.07226 0.0052 0.14127 0.021484 0.21484 0.021484 0.06872 0 0.13359-0.016914 0.20117-0.021484 0.11598-0.0077 0.23151-0.014046 0.3457-0.035156 0.08927-0.01652 0.17343-0.0441 0.25977-0.06836 0.064849-0.01828 0.13195-0.027971 0.19531-0.050781v0.89258c0 0.208 0.12922 0.3938 0.32422 0.4668l0.68164 0.25586c-0.54551 0.49117-1.255 0.77734-2.0039 0.77734-0.75033 0-1.4622-0.2849-2.0078-0.77734l0.68164-0.25586c0.195-0.073 0.32422-0.2588 0.32422-0.4668v-0.89258zm-13.307 3.334c-0.12775-0.005901-0.25833 0.03736-0.36133 0.13086-0.204 0.185-0.21725 0.50303-0.03125 0.70703 0.238 0.26 0.36719 0.59527 0.36719 0.94727v1.7539c0 0.276 0.224 0.5 0.5 0.5s0.5-0.224 0.5-0.5v-1.7539c0-0.601-0.22391-1.178-0.62891-1.623-0.092999-0.102-0.21795-0.15624-0.3457-0.16211zm8.6152 0c-0.12762 0.0057-0.25416 0.05911-0.34766 0.16211-0.405 0.444-0.62891 1.021-0.62891 1.623v1.7539c0 0.276 0.224 0.5 0.5 0.5s0.49905-0.224 0.49805-0.5v-1.7539c0-0.351 0.13214-0.68727 0.36914-0.94727 0.187-0.204 0.17275-0.52103-0.03125-0.70703-0.102-0.094-0.23175-0.13661-0.35938-0.13086zm9.5078 0.36914c-0.12775 0.0057-0.2522 0.06156-0.3457 0.16406l-0.36328 0.39648c-0.376 0.414-0.58398 0.94781-0.58398 1.5078v1.1016c0 0.276 0.224 0.5 0.5 0.5 0.277 0 0.499-0.224 0.5-0.5v-1.1016c-2e-6 -0.31 0.11622-0.60498 0.32422-0.83398l0.36133-0.39648c0.186-0.203 0.17275-0.51808-0.03125-0.70508-0.1025-0.0935-0.23358-0.13856-0.36133-0.13281zm-27.633 0.001953c-0.12788-0.0059-0.25933 0.03736-0.36133 0.13086-0.204 0.185-0.21825 0.50108-0.03125 0.70508l0.36133 0.39648c0.209 0.229 0.32422 0.52398 0.32422 0.83398v1.1016c0 0.276 0.224 0.5 0.5 0.5s0.501-0.224 0.5-0.5v-1.1016c0-0.56-0.20894-1.0948-0.58594-1.5078l-0.36133-0.39648c-0.0925-0.102-0.21783-0.15624-0.3457-0.16211z"/><style type="text/css">
	.st0{stroke:#4F5266;stroke-linecap:round;stroke-linejoin:round;stroke-miterlimit:10;}
</style></svg>
