<?xml version="1.0" encoding="UTF-8" standalone="no"?>
<svg
   xmlns:dc="http://purl.org/dc/elements/1.1/"
   xmlns:cc="http://creativecommons.org/ns#"
   xmlns:rdf="http://www.w3.org/1999/02/22-rdf-syntax-ns#"
   xmlns:svg="http://www.w3.org/2000/svg"
   xmlns="http://www.w3.org/2000/svg"
   xmlns:sodipodi="http://sodipodi.sourceforge.net/DTD/sodipodi-0.dtd"
   xmlns:inkscape="http://www.inkscape.org/namespaces/inkscape"
   enable-background="new 0 0 338.095 213.717"
   version="1.1"
   viewBox="0 0 338.1 213.72"
   xml:space="preserve"
   id="svg4"
   sodipodi:docname="logo-g1-2018-src-cc-00.svg"
   inkscape:export-filename="C:\Users\Millicent\gitWorkspace\duntier-ecosytem\rml12\static\img\press_HD\logo-g1-2018-cc-00.png"
   inkscape:export-xdpi="567.87933"
   inkscape:export-ydpi="567.87933"
   inkscape:version="0.92.3 (2405546, 2018-03-11)"><metadata
   id="metadata10"><rdf:RDF><cc:Work
       rdf:about=""><dc:format>image/svg+xml</dc:format><dc:type
         rdf:resource="http://purl.org/dc/dcmitype/StillImage" /><dc:title></dc:title></cc:Work></rdf:RDF></metadata><defs
   id="defs8" /><sodipodi:namedview
   pagecolor="#ffffff"
   bordercolor="#666666"
   borderopacity="1"
   objecttolerance="10"
   gridtolerance="10"
   guidetolerance="10"
   inkscape:pageopacity="0"
   inkscape:pageshadow="2"
   inkscape:window-width="1920"
   inkscape:window-height="1017"
   id="namedview6"
   showgrid="true"
   showguides="true"
   inkscape:guide-bbox="true"
   inkscape:snap-bbox="true"
   inkscape:bbox-paths="true"
   inkscape:bbox-nodes="true"
   inkscape:snap-bbox-edge-midpoints="true"
   inkscape:snap-bbox-midpoints="true"
   inkscape:object-paths="true"
   inkscape:snap-intersection-paths="true"
   inkscape:snap-smooth-nodes="true"
   inkscape:snap-midpoints="true"
   inkscape:snap-object-midpoints="true"
   inkscape:snap-center="true"
   inkscape:snap-text-baseline="true"
   inkscape:snap-page="true"
   inkscape:snap-grids="false"
   inkscape:zoom="2"
   inkscape:cx="24.015557"
   inkscape:cy="113.82107"
   inkscape:window-x="1072"
   inkscape:window-y="612"
   inkscape:window-maximized="1"
   inkscape:current-layer="svg4"><inkscape:grid
     type="xygrid"
     id="grid817" /><sodipodi:guide
     position="239.01562,68.234375"
     orientation="0,1"
     id="guide833"
     inkscape:locked="false" /><sodipodi:guide
     position="35.243,177.95806"
     orientation="0,1"
     id="guide837"
     inkscape:locked="false" /><sodipodi:guide
     position="35.242999,177.95806"
     orientation="1,0"
     id="guide839"
     inkscape:locked="false" /><sodipodi:guide
     position="22.910156,177.95806"
     orientation="1,0"
     id="guide841"
     inkscape:locked="false" /></sodipodi:namedview>
<path
   d="m 23.943,5.291 c 0,15.271 7.6333,22.908 22.904,22.908 h 17.625 c 15.27,0 22.904,-7.6362 22.904,-22.908 V 0 H 64.472 v 4.4062 c 0,1.765 -0.58972,3.2332 -1.7617,4.4062 -1.18,1.177 -2.6431,1.7617 -4.4121,1.7617 h -5.2773 c -1.765,0 -3.2342,-0.58372 -4.4082,-1.7617 -1.173,-1.173 -1.7656,-2.6412 -1.7656,-4.4062 V 0 H 23.94305 Z m 228.271,6.38694 c 0,4.9637 3.229,9.1666 7.6973,10.645 l -3.6504,31.068 c -0.31394,-0.01548 -0.62363,-0.04687 -0.94141,-0.04687 -10.457,0 -18.932,8.4726 -18.932,18.932 0,0.1643 0.0212,0.32303 0.0254,0.48633 l -29.588,4.9922 c -1.07215,-2.64471 -3.64033,-4.375658 -6.4941,-4.377 -3.87113,6.63e-4 -7.00914,3.138669 -7.0098,7.0098 -3.9e-4,3.871873 3.13793,7.011037 7.0098,7.0117 3.73041,-0.0042 6.80431,-2.92872 6.9941,-6.6543 l 29.4,-4.9629 c 1.6467,8.7738 9.3372,15.42 18.594,15.42 1.3048,0 2.5801,-0.13336 3.8106,-0.38477 l 7.498,24.25199 c -3.5463,1.6911 -6.002,5.298 -6.002,9.4883 0,5.81 4.7085,10.52 10.521,10.52 5.808,0 10.514,-4.7095 10.514,-10.52 0,-5.809 -4.7057,-10.519 -10.514,-10.52 -0.55337,0 -1.0928,0.0564 -1.623,0.13867 l -7.4902,-24.22499 c 7.1345,-2.7118 12.213,-9.5921 12.213,-17.676 0,-1.8316 -0.27291,-3.5965 -0.75782,-5.2715 l 36.01,-12.795 c 1.71341,3.16525 5.02186,5.138783 8.6211,5.1426 5.42028,-2.76e-4 9.81422,-4.394216 9.8145,-9.8145 -2.8e-4,-5.420284 -4.39422,-9.814224 -9.8145,-9.8145 -5.42025,3.31e-4 -9.81412,4.394255 -9.8144,9.8145 0.002,0.609612 0.0609,1.217706 0.17578,1.8164 l -36.074,12.816 c -2.4932,-5.249 -7.3126,-9.1738 -13.141,-10.41 l 3.6328,-30.893 c 0.17799,0.0084 0.35314,0.02734 0.5332,0.02734 6.199,0 11.217,-5.0218 11.217,-11.217 0,-6.197 -5.0168,-11.217 -11.21388,-11.21625 C 257.238,0.46094 252.214,5.48074 252.214,11.67794 Z M 8.37,44.13494 c -5.579,5.579 -8.3711,14.536 -8.3711,26.871 v 56.391 c 0,11.516 2.7034,19.972 8.1074,25.375 5.4,5.402 13.854,8.1055 25.377,8.1055 14.139,0 29.129,-0.56072 44.955,-1.6699 v 20.836 c 0,2.723 -0.79562,4.8738 -2.3906,6.4688 -1.598,1.602 -3.7547,2.3945 -6.4707,2.3945 -9.688,0 -19.141,-0.29577 -28.354,-0.88477 v 23.92 c 12.644,1.185 24.603,1.7754 35.887,1.7754 11.279,0 19.637,-2.7163 25.074,-8.1543 5.436,-5.432 8.1523,-13.938 8.1523,-25.518 v -92.145 h -54.934 v 24.805 h 23.035 v 22.648 l -0.04492,-0.0312 c -11.158,0.59 -24.359,0.88281 -37.865,0.88281 -2.702,0 -4.8397,-0.79105 -6.4297,-2.373 -1.586,-1.588 -2.375,-3.7306 -2.375,-6.4356 v -56.391 c 0,-7.044 3.5204,-10.576 10.568,-10.576 h 56.393 v -24.668 l -63.440681,7.59e-4 C 22.910156,35.761939 13.951,38.55294 8.37,44.13494 Z m 110.418,3.80314 7.1465,16.438 16.438,-5.7188 v 77.902 h 25.732 v -100.05 l -22.87125,-0.0016 z m 142.435,9.716 c 5.078,0 9.1934,4.1183 9.1934,9.1953 0,5.076 -4.1154,9.1953 -9.1934,9.1953 -5.079,0 -9.1953,-4.1193 -9.1953,-9.1953 0,-5.077 4.1163,-9.1953 9.1953,-9.1953 z m -29.207,89.582 c -3.987,1.169 -7.8683,2.9992 -11.654,5.4922 l -1.209,-6.0352 H 200.44 v 64 h 21.131 v -45.285 c 5.39,-1.606 10.221,-2.4141 14.49,-2.4141 h 4.2227 c 1.209,0 2.2155,0.40103 3.0215,1.207 0.802,0.805 1.207,1.8095 1.207,3.0215 v 43.471 h 21.133 v -47.098 c 0,-5.472 -1.6532,-9.8562 -4.9512,-13.16 -3.303,-3.301 -7.6881,-4.94854 -13.164,-4.9492 l -5.434,-6.5e-4 c -2.73663,0 -6.0961,0.58345 -10.08,1.75045 z m 48.418,3.3809 c -3.425,3.423 -5.1289,8.1495 -5.1289,14.188 v 28.979 c 0,5.476 1.6472,9.8621 4.9492,13.164 3.299,3.301 7.6851,4.9492 13.162,4.9492 12.636,0 26.71651,-0.80999 42.25999,-2.416 l 1e-5,-15.092 c -15.374,1.21 -27.047,1.8125 -35.018,1.8125 -1.208,0 -2.2125,-0.40203 -3.0195,-1.207 -0.804,-0.806 -1.2051,-1.8115 -1.2051,-3.0215 v -4.8301 h 41.658 v -22.338 c 0,-6.039 -1.7119,-10.764 -5.1309,-14.188 -3.421,-3.422 -8.1514,-5.13089 -14.189,-5.1309 L 295,145.48613 c -6,0 -11.144,1.70885 -14.566,5.13085 z m -157.271,43.1661 c 0,5.476 1.6512,9.8621 4.9512,13.164 3.302,3.301 7.6871,4.9492 13.164,4.9492 h 5.4316 c 2.736,0 6.0999,-0.584 10.086,-1.75 3.981,-1.165 7.8644,-2.9961 11.648,-5.4941 l 1.209,6.041 h 18.715 v -64 h -21.133 v 45.279 c -5.392,1.613 -10.22,2.4141 -14.49,2.4141 h -4.2226 c -1.209,0 -2.2145,-0.39713 -3.0215,-1.2031 -0.805,-0.803 -1.2051,-1.8125 -1.2051,-3.0215 v -43.469 l -21.1328,2e-4 z m 178.11,-33.201 h 10.865 c 3.219,0 4.8281,1.6092 4.8281,4.8262 v 6.6445 h -20.525 v -6.6445 c 0,-3.217 1.612,-4.8262 4.832,-4.8262 z"
   id="path2"
   inkscape:connector-curvature="0"
   sodipodi:nodetypes="ssssccscsscsccssccsscccccccsccssscccsccccccccccsscscsscscscsccscsccccccscsssccccccccccccssssscccccccsscsccscscccsscsccscsccscsccscsscccccccsscsccscssccscc" />
</svg>