<svg enable-background="new 0 0 338.095 213.717" version="1.1" viewBox="0 0 338.1 213.72" xml:space="preserve" xmlns="http://www.w3.org/2000/svg">
<path d="m23.943 5.291c0 15.271 7.6333 22.908 22.904 22.908h17.625c15.27 0 22.904-7.6362 22.904-22.908v-5.291h-22.904v4.4062c0 1.765-0.58972 3.2332-1.7617 4.4062-1.18 1.177-2.6431 1.7617-4.4121 1.7617h-5.2773c-1.765 0-3.2342-0.58372-4.4082-1.7617-1.173-1.173-1.7656-2.6412-1.7656-4.4062v-4.4062h-22.904zm228.27 6.3869c0 4.9637 3.229 9.1666 7.6973 10.645l-3.6504 31.068c-0.31394-0.01548-0.62363-0.04687-0.94141-0.04687-10.457 0-18.932 8.4726-18.932 18.932 0 0.1643 0.0212 0.32303 0.0254 0.48633l-29.588 4.9922c-1.0722-2.6447-3.6403-4.3757-6.4941-4.377-3.8711 6.63e-4 -7.0091 3.1387-7.0098 7.0098-3.9e-4 3.8719 3.1379 7.011 7.0098 7.0117 3.7304-0.0042 6.8043-2.9287 6.9941-6.6543l29.4-4.9629c1.6467 8.7738 9.3372 15.42 18.594 15.42 1.3048 0 2.5801-0.13336 3.8106-0.38477l7.498 24.252c-3.5463 1.6911-6.002 5.298-6.002 9.4883 0 5.81 4.7085 10.52 10.521 10.52 5.808 0 10.514-4.7095 10.514-10.52 0-5.809-4.7057-10.519-10.514-10.52-0.55337 0-1.0928 0.0564-1.623 0.13867l-7.4902-24.225c7.1345-2.7118 12.213-9.5921 12.213-17.676 0-1.8316-0.27291-3.5965-0.75782-5.2715l36.01-12.795c1.7134 3.1652 5.0219 5.1388 8.6211 5.1426 5.4203-2.76e-4 9.8142-4.3942 9.8145-9.8145-2.8e-4 -5.4203-4.3942-9.8142-9.8145-9.8145-5.4202 3.31e-4 -9.8141 4.3943-9.8144 9.8145 2e-3 0.60961 0.0609 1.2177 0.17578 1.8164l-36.074 12.816c-2.4932-5.249-7.3126-9.1738-13.141-10.41l3.6328-30.893c0.17799 0.0084 0.35314 0.02734 0.5332 0.02734 6.199 0 11.217-5.0218 11.217-11.217 0-6.197-5.0168-11.217-11.214-11.216-6.1971 7.5e-4 -11.221 5.0206-11.221 11.218zm-243.84 32.457c-5.579 5.579-8.3711 14.536-8.3711 26.871v56.391c0 11.516 2.7034 19.972 8.1074 25.375 5.4 5.402 13.854 8.1055 25.377 8.1055 14.139 0 29.129-0.56072 44.955-1.6699v20.836c0 2.723-0.79562 4.8738-2.3906 6.4688-1.598 1.602-3.7547 2.3945-6.4707 2.3945-9.688 0-19.141-0.29577-28.354-0.88477v23.92c12.644 1.185 24.603 1.7754 35.887 1.7754 11.279 0 19.637-2.7163 25.074-8.1543 5.436-5.432 8.1523-13.938 8.1523-25.518v-92.145h-54.934v24.805h23.035v22.648l-0.04492-0.0312c-11.158 0.59-24.359 0.88281-37.865 0.88281-2.702 0-4.8397-0.79105-6.4297-2.373-1.586-1.588-2.375-3.7306-2.375-6.4356v-56.391c0-7.044 3.5204-10.576 10.568-10.576h56.393v-24.668l-63.441 7.59e-4c-12.333 0-21.292 2.791-26.873 8.373zm110.42 3.8031 7.1465 16.438 16.438-5.7188v77.902h25.732v-100.05l-22.871-0.0016zm142.44 9.716c5.078 0 9.1934 4.1183 9.1934 9.1953 0 5.076-4.1154 9.1953-9.1934 9.1953-5.079 0-9.1953-4.1193-9.1953-9.1953 0-5.077 4.1163-9.1953 9.1953-9.1953zm-29.207 89.582c-3.987 1.169-7.8683 2.9992-11.654 5.4922l-1.209-6.0352h-18.713v64h21.131v-45.285c5.39-1.606 10.221-2.4141 14.49-2.4141h4.2227c1.209 0 2.2155 0.40103 3.0215 1.207 0.802 0.805 1.207 1.8095 1.207 3.0215v43.471h21.133v-47.098c0-5.472-1.6532-9.8562-4.9512-13.16-3.303-3.301-7.6881-4.9485-13.164-4.9492l-5.434-6.5e-4c-2.7366 0-6.0961 0.58345-10.08 1.7504zm48.418 3.3809c-3.425 3.423-5.1289 8.1495-5.1289 14.188v28.979c0 5.476 1.6472 9.8621 4.9492 13.164 3.299 3.301 7.6851 4.9492 13.162 4.9492 12.636 0 26.717-0.80999 42.26-2.416l1e-5 -15.092c-15.374 1.21-27.047 1.8125-35.018 1.8125-1.208 0-2.2125-0.40203-3.0195-1.207-0.804-0.806-1.2051-1.8115-1.2051-3.0215v-4.8301h41.658v-22.338c0-6.039-1.7119-10.764-5.1309-14.188-3.421-3.422-8.1514-5.1309-14.189-5.1309l-23.772-5e-5c-6 0-11.144 1.7088-14.566 5.1308zm-157.27 43.166c0 5.476 1.6512 9.8621 4.9512 13.164 3.302 3.301 7.6871 4.9492 13.164 4.9492h5.4316c2.736 0 6.0999-0.584 10.086-1.75 3.981-1.165 7.8644-2.9961 11.648-5.4941l1.209 6.041h18.715v-64h-21.133v45.279c-5.392 1.613-10.22 2.4141-14.49 2.4141h-4.2226c-1.209 0-2.2145-0.39713-3.0215-1.2031-0.805-0.803-1.2051-1.8125-1.2051-3.0215v-43.469l-21.133 2e-4zm178.11-33.201h10.865c3.219 0 4.8281 1.6092 4.8281 4.8262v6.6445h-20.525v-6.6445c0-3.217 1.612-4.8262 4.832-4.8262z"/>
</svg>
