<svg version="1.1" viewBox="0 0 80 80" xmlns="http://www.w3.org/2000/svg">
 <g transform="translate(-10 -962.36)">
  <path d="m14 965.36c-2.216 0-4 1.784-4 4v8h8.0938l10.344-12zm19.688 0-10.344 12h14.75l10.344-12zm20 0-10.344 12h14.75l10.344-12zm20 0-10.344 12h16.656v-8c0-2.216-1.784-4-4-4zm-63.688 16v44c0 2.216 1.784 4 4 4h46.531c-0.332-1.2836-0.5312-2.6126-0.5312-4 0-8.8366 7.1634-16 16-16 1.3874 0 2.7164 0.1994 4 0.5312v-28.531zm30 14 16 10-16 10zm36 16c-7.732 0-14 6.268-14 14s6.268 14 14 14 14-6.268 14-14-6.268-14-14-14zm0 4c1.1046 0 2 0.8954 2 2v6h5c1.1046 0 2 0.8954 2 2s-0.8954 2-2 2h-7c-1.1046 0-2-0.8954-2-2v-8c0-1.1046 0.8954-2 2-2z" color="#000000" overflow="visible"/>
 </g>
</svg>
